{
  "textures": {
    "iron": "blocks/iron_block",
    "piston": "advancedrefineries:blocks/block_conveyor_pull"
  },
  "elements": [
    {
      "from": [0, 1, 1],
      "to":   [4, 5, 15],
      "faces": {
        "down":  { "texture": "#iron" },
        "up":    { "texture": "#iron" },
        "north": { "texture": "#iron" },
        "south": { "texture": "#iron" },
        "west":  { "texture": "#piston" },
        "east":  { "texture": "#iron" }
      }
    }
  ]
}