{
  "textures": {
    "iron": "blocks/wool_colored_yellow"
  },
  "elements": [
    {
      "from": [3, 0, 3],
      "to": [13, 3, 13],
      "faces": {
        "down":  { "texture": "#iron" },
        "up":    { "texture": "#iron" },
        "north": { "texture": "#iron" },
        "south": { "texture": "#iron" },
        "west":  { "texture": "#iron" },
        "east":  { "texture": "#iron" }
      }
    }
  ]
}